{
  "project_info": {
    "project_number": "505188961985",
    "project_id": "projectmarket-123",
    "storage_bucket": "projectmarket-123.appspot.com"
  },
  "client": [
    {
      "client_info": {
        "mobilesdk_app_id": "1:505188961985:android:e7c955b297436509ce0e40",
        "android_client_info": {
          "package_name": "com.gtion.trademarket"
        }
      },
      "oauth_client": [
        {
          "client_id": "505188961985-pstij2biis885h51l915042p74ef6gt2.apps.googleusercontent.com",
          "client_type": 3
        }
      ],
      "api_key": [
        {
          "current_key": "AIzaSyDiK77M_wdVKvKtN7jDj2t52bPH9CEir4c"
        }
      ],
      "services": {
        "appinvite_service": {
          "other_platform_oauth_client": [
            {
              "client_id": "505188961985-pstij2biis885h51l915042p74ef6gt2.apps.googleusercontent.com",
              "client_type": 3
            }
          ]
        }
      }
    }
  ],
  "configuration_version": "1"
}