%YAML 1.1
%TAG !u! tag:unity3d.com,2011:
--- !u!114 &11400000
MonoBehaviour:
  m_ObjectHideFlags: 0
  m_CorrespondingSourceObject: {fileID: 0}
  m_PrefabInstance: {fileID: 0}
  m_PrefabAsset: {fileID: 0}
  m_GameObject: {fileID: 0}
  m_Enabled: 1
  m_EditorHideFlags: 0
  m_Script: {fileID: 11500000, guid: 57861a812fc2f3d418fea27b28e1ea1f, type: 3}
  m_Name: MenuSystemConf
  m_EditorClassIdentifier: 
  config:
  - className: BarcodeScanController
    guid: 9a63c2b7d0a99eb4ba50f6fd2dbb849c
    isDedicated: 0
    canvas: 0
    layerOrder: 2
    blockBackPress: 1
    hideOnBackPress: 1
    referenceType: 3
    pathGameObject: 
    prefabsGameObject: {fileID: 0}
    refGameObject:
      m_AssetGUID: 9a63c2b7d0a99eb4ba50f6fd2dbb849c
      m_SubObjectName: 
      m_SubObjectType: 
      m_EditorAssetChanged: 1
  - className: MainMenuController
    guid: eb0e7ebc96976684e93a0493c7259ab8
    isDedicated: 0
    canvas: 0
    layerOrder: 1
    blockBackPress: 1
    hideOnBackPress: 0
    referenceType: 3
    pathGameObject: 
    prefabsGameObject: {fileID: 0}
    refGameObject:
      m_AssetGUID: eb0e7ebc96976684e93a0493c7259ab8
      m_SubObjectName: 
      m_SubObjectType: 
      m_EditorAssetChanged: 1
  - className: AdminMenuController
    guid: fde16076bb776084c838e3735f086d69
    isDedicated: 0
    canvas: 0
    layerOrder: 1
    blockBackPress: 1
    hideOnBackPress: 1
    referenceType: 3
    pathGameObject: 
    prefabsGameObject: {fileID: 0}
    refGameObject:
      m_AssetGUID: fde16076bb776084c838e3735f086d69
      m_SubObjectName: 
      m_SubObjectType: 
      m_EditorAssetChanged: 1
  - className: RegisterProductMenuController
    guid: 9e51471de9cd2ff4c8ecaefdb4921323
    isDedicated: 0
    canvas: 0
    layerOrder: 1
    blockBackPress: 1
    hideOnBackPress: 1
    referenceType: 3
    pathGameObject: 
    prefabsGameObject: {fileID: 0}
    refGameObject:
      m_AssetGUID: 9e51471de9cd2ff4c8ecaefdb4921323
      m_SubObjectName: 
      m_SubObjectType: 
      m_EditorAssetChanged: 1
  - className: ModifyProductController
    guid: 1d5525f7bf6f1184ba6f0139d5920f7b
    isDedicated: 0
    canvas: 0
    layerOrder: 2
    blockBackPress: 1
    hideOnBackPress: 1
    referenceType: 3
    pathGameObject: 
    prefabsGameObject: {fileID: 0}
    refGameObject:
      m_AssetGUID: 1d5525f7bf6f1184ba6f0139d5920f7b
      m_SubObjectName: 
      m_SubObjectType: 
      m_EditorAssetChanged: 1
  - className: ToastController
    guid: eb4c0ee5140b9294da0fadcdea44f4bc
    isDedicated: 0
    canvas: 0
    layerOrder: 5
    blockBackPress: 0
    hideOnBackPress: 0
    referenceType: 3
    pathGameObject: 
    prefabsGameObject: {fileID: 0}
    refGameObject:
      m_AssetGUID: eb4c0ee5140b9294da0fadcdea44f4bc
      m_SubObjectName: 
      m_SubObjectType: 
      m_EditorAssetChanged: 1
  - className: ChasierMenuController
    guid: 3947e84bd00834a41bf565bbe924a115
    isDedicated: 0
    canvas: 0
    layerOrder: 1
    blockBackPress: 1
    hideOnBackPress: 1
    referenceType: 3
    pathGameObject: 
    prefabsGameObject: {fileID: 0}
    refGameObject:
      m_AssetGUID: 3947e84bd00834a41bf565bbe924a115
      m_SubObjectName: 
      m_SubObjectType: 
      m_EditorAssetChanged: 1
  - className: DisplayDialogueController
    guid: 76c1f43de021f524d9b4812180a55d50
    isDedicated: 0
    canvas: 0
    layerOrder: 3
    blockBackPress: 1
    hideOnBackPress: 1
    referenceType: 3
    pathGameObject: 
    prefabsGameObject: {fileID: 0}
    refGameObject:
      m_AssetGUID: 76c1f43de021f524d9b4812180a55d50
      m_SubObjectName: 
      m_SubObjectType: 
      m_EditorAssetChanged: 1
